{
    "version": "1.5",
    "lastModified": "Wed Jan 30 12:43:16 CET 2019",
    "services": [{
        "name": "JWTAuthService",
        "address": "\/web\/pdo\/JWTAuthService",
        "useRequest": true,
        "resources": [{
            "name": "Customer",
            "path": "\/Customer",
            "autoSave": true,
            "schema": {
                "type": "object",
                "additionalProperties": false,
                "properties": {"dsCustomer": {
                    "type": "object",
                    "additionalProperties": false,
                    "properties": {"ttCustomer": {
                        "type": "array",
                        "primaryKey": ["CustNum"],
                        "items": {
                            "additionalProperties": false,
                            "properties": {
                                "_id": {
                                    "type": "string",
                                    "semanticType": "Internal"
                                },
                                "_errorString": {
                                    "type": "string",
                                    "semanticType": "Internal"
                                },
                                "CustNum": {
                                    "type": "integer",
                                    "ablType": "INTEGER",
                                    "default": 0,
                                    "title": "Cust Num"
                                },
                                "Country": {
                                    "type": "string",
                                    "ablType": "CHARACTER",
                                    "default": "USA",
                                    "title": "Country"
                                },
                                "Name": {
                                    "type": "string",
                                    "ablType": "CHARACTER",
                                    "default": "",
                                    "title": "Name"
                                },
                                "Address": {
                                    "type": "string",
                                    "ablType": "CHARACTER",
                                    "default": "",
                                    "title": "Address"
                                },
                                "Address2": {
                                    "type": "string",
                                    "ablType": "CHARACTER",
                                    "default": "",
                                    "title": "Address2"
                                },
                                "City": {
                                    "type": "string",
                                    "ablType": "CHARACTER",
                                    "default": "",
                                    "title": "City"
                                },
                                "State": {
                                    "type": "string",
                                    "ablType": "CHARACTER",
                                    "default": "",
                                    "title": "State"
                                },
                                "PostalCode": {
                                    "type": "string",
                                    "ablType": "CHARACTER",
                                    "default": "",
                                    "title": "Postal Code"
                                },
                                "Contact": {
                                    "type": "string",
                                    "ablType": "CHARACTER",
                                    "default": "",
                                    "title": "Contact"
                                },
                                "Phone": {
                                    "type": "string",
                                    "ablType": "CHARACTER",
                                    "default": "",
                                    "title": "Phone"
                                },
                                "SalesRep": {
                                    "type": "string",
                                    "ablType": "CHARACTER",
                                    "default": "",
                                    "title": "Sales Rep"
                                },
                                "CreditLimit": {
                                    "type": "number",
                                    "ablType": "DECIMAL",
                                    "default": 1500,
                                    "title": "Credit Limit"
                                },
                                "Balance": {
                                    "type": "number",
                                    "ablType": "DECIMAL",
                                    "default": 0,
                                    "title": "Balance"
                                },
                                "Terms": {
                                    "type": "string",
                                    "ablType": "CHARACTER",
                                    "default": "Net30",
                                    "title": "Terms"
                                },
                                "Discount": {
                                    "type": "integer",
                                    "ablType": "INTEGER",
                                    "default": 0,
                                    "title": "Discount"
                                },
                                "Comments": {
                                    "type": "string",
                                    "ablType": "CHARACTER",
                                    "default": "",
                                    "title": "Comments"
                                },
                                "Fax": {
                                    "type": "string",
                                    "ablType": "CHARACTER",
                                    "default": "",
                                    "title": "Fax"
                                },
                                "EmailAddress": {
                                    "type": "string",
                                    "ablType": "CHARACTER",
                                    "default": "",
                                    "title": "Email"
                                }
                            }
                        }
                    }}
                }}
            },
            "operations": [
                {
                    "path": "",
                    "useBeforeImage": true,
                    "type": "update",
                    "verb": "put",
                    "params": [
                        {
                            "name": "dsCustomer",
                            "type": "REQUEST_BODY"
                        },
                        {
                            "name": "dsCustomer",
                            "type": "RESPONSE_BODY"
                        }
                    ]
                },
                {
                    "path": "",
                    "useBeforeImage": true,
                    "type": "delete",
                    "verb": "delete",
                    "params": [
                        {
                            "name": "dsCustomer",
                            "type": "REQUEST_BODY"
                        },
                        {
                            "name": "dsCustomer",
                            "type": "RESPONSE_BODY"
                        }
                    ]
                },
                {
                    "path": "?filter={filter}",
                    "useBeforeImage": true,
                    "type": "read",
                    "verb": "get",
                    "params": [
                        {
                            "name": "filter",
                            "type": "QUERY"
                        },
                        {
                            "name": "dsCustomer",
                            "type": "RESPONSE_BODY"
                        }
                    ]
                },
                {
                    "path": "",
                    "useBeforeImage": true,
                    "type": "create",
                    "verb": "post",
                    "params": [
                        {
                            "name": "dsCustomer",
                            "type": "REQUEST_BODY"
                        },
                        {
                            "name": "dsCustomer",
                            "type": "RESPONSE_BODY"
                        }
                    ]
                }
            ]
        }]
    }]
}